TFBS_chrom;TFBS_start;TFBS_end;TFBS_id;TFBS_strand;TFBS_signal_liver;TFBS_signal_brain;TFBS_bound_liver;TFBS_bound_brain;TFBS_logfc_liver_brain;gene_chrom;TSS_start;TSS_end;gene_id;gene_strand;distance_tss;TE_chrom;TE_start;TE_end;TE_id1;TE_id2
ssa09;24004499;24004515;MAFF_MA0495.3;-;0.09988;0.00673;1;0;2.7693;ssa09;23999832;24026741;106611011;+;0;ssa09;24002910;24004524;ID=Ssa_Repeat_622966;Name=DTT_SsalEle0180;Note=DNA/TcMar-Tc1;DTT
ssa09;24004500;24004516;Rarg_MA0859.1;-;0.10024;0.00696;1;0;2.75348;ssa09;23999832;24026741;106611011;+;0;ssa09;24002910;24004524;ID=Ssa_Repeat_622966;Name=DTT_SsalEle0180;Note=DNA/TcMar-Tc1;DTT
ssa09;24004501;24004516;Nr2f6var.2_MA0728.1;-;0.10024;0.00696;1;0;2.75348;ssa09;23999832;24026741;106611011;+;0;ssa09;24002910;24004524;ID=Ssa_Repeat_622966;Name=DTT_SsalEle0180;Note=DNA/TcMar-Tc1;DTT
ssa09;24004513;24004523;MYB_MA0100.3;+;0.10607;0.00723;1;0;2.80451;ssa09;23999832;24026741;106611011;+;0;ssa09;24002910;24004524;ID=Ssa_Repeat_622966;Name=DTT_SsalEle0180;Note=DNA/TcMar-Tc1;DTT
ssa10;7297217;7297233;SCRT2_MA0744.2;+;0.09807;0.00839;1;0;2.60286;ssa10;7230451;7337837;106613481;+;0;ssa10;7296152;7297281;ID=Ssa_Repeat_1760438;Name=DTT_SsalEle0351;Note=DNA/TcMar-Tc1;DTT
ssa10;7297220;7297234;FERD3L_MA1485.1;+;0.10659;0.00839;1;0;2.71305;ssa10;7230451;7337837;106613481;+;0;ssa10;7296152;7297281;ID=Ssa_Repeat_1760438;Name=DTT_SsalEle0351;Note=DNA/TcMar-Tc1;DTT
ssa10;7297220;7297236;KLF9_MA1107.2;-;0.10659;0.00839;1;0;2.71305;ssa10;7230451;7337837;106613481;+;0;ssa10;7296152;7297281;ID=Ssa_Repeat_1760438;Name=DTT_SsalEle0351;Note=DNA/TcMar-Tc1;DTT
ssa10;7297223;7297234;KLF10_MA1511.1;-;0.10659;0.00839;1;0;2.71305;ssa10;7230451;7337837;106613481;+;0;ssa10;7296152;7297281;ID=Ssa_Repeat_1760438;Name=DTT_SsalEle0351;Note=DNA/TcMar-Tc1;DTT
ssa10;7297223;7297235;KLF4_MA0039.4;-;0.10877;0.00839;1;0;2.73994;ssa10;7230451;7337837;106613481;+;0;ssa10;7296152;7297281;ID=Ssa_Repeat_1760438;Name=DTT_SsalEle0351;Note=DNA/TcMar-Tc1;DTT
ssa10;7297224;7297235;KLF2_MA1515.1;-;0.10877;0.00839;1;0;2.73994;ssa10;7230451;7337837;106613481;+;0;ssa10;7296152;7297281;ID=Ssa_Repeat_1760438;Name=DTT_SsalEle0351;Note=DNA/TcMar-Tc1;DTT
ssa10;7297252;7297269;ZNF410_MA0752.1;-;0.18584;0.00839;1;0;3.46489;ssa10;7230451;7337837;106613481;+;0;ssa10;7296152;7297281;ID=Ssa_Repeat_1760438;Name=DTT_SsalEle0351;Note=DNA/TcMar-Tc1;DTT
ssa10;7318580;7318599;CTCF_MA0139.1;-;0.09478;0.00183;1;0;3.22734;ssa10;7230451;7337837;106613481;+;0;ssa10;7318227;7319384;ID=Ssa_Repeat_1760485;Name=DTT_SsalEle0401;Note=DNA/TcMar-Tc1;DTT
ssa10;7318588;7318601;ATF2_MA1632.1;+;0.09563;0.00183;1;0;3.23908;ssa10;7230451;7337837;106613481;+;0;ssa10;7318227;7319384;ID=Ssa_Repeat_1760485;Name=DTT_SsalEle0401;Note=DNA/TcMar-Tc1;DTT
ssa10;7318588;7318601;CREB1_MA0018.4;+;0.09563;0.00183;1;0;3.23908;ssa10;7230451;7337837;106613481;+;0;ssa10;7318227;7319384;ID=Ssa_Repeat_1760485;Name=DTT_SsalEle0401;Note=DNA/TcMar-Tc1;DTT
ssa10;7318588;7318600;RUNX3_MA0684.2;-;0.09563;0.00183;1;0;3.23908;ssa10;7230451;7337837;106613481;+;0;ssa10;7318227;7319384;ID=Ssa_Repeat_1760485;Name=DTT_SsalEle0401;Note=DNA/TcMar-Tc1;DTT
ssa10;7318591;7318610;THRBvar.3_MA1576.1;-;0.09801;0.00181;1;0;3.27404;ssa10;7230451;7337837;106613481;+;0;ssa10;7318227;7319384;ID=Ssa_Repeat_1760485;Name=DTT_SsalEle0401;Note=DNA/TcMar-Tc1;DTT
ssa10;7318592;7318600;NR2C2var.2_MA1536.1;+;0.09628;0.00183;1;0;3.24799;ssa10;7230451;7337837;106613481;+;0;ssa10;7318227;7319384;ID=Ssa_Repeat_1760485;Name=DTT_SsalEle0401;Note=DNA/TcMar-Tc1;DTT
ssa10;7318592;7318606;RARBvar.3_MA1552.1;-;0.09801;0.00182;1;0;3.27274;ssa10;7230451;7337837;106613481;+;0;ssa10;7318227;7319384;ID=Ssa_Repeat_1760485;Name=DTT_SsalEle0401;Note=DNA/TcMar-Tc1;DTT
ssa10;7318592;7318606;RARGvar.3_MA1553.1;-;0.09801;0.00182;1;0;3.27274;ssa10;7230451;7337837;106613481;+;0;ssa10;7318227;7319384;ID=Ssa_Repeat_1760485;Name=DTT_SsalEle0401;Note=DNA/TcMar-Tc1;DTT
ssa10;7318592;7318606;RXRBvar.2_MA1555.1;-;0.09801;0.00182;1;0;3.27274;ssa10;7230451;7337837;106613481;+;0;ssa10;7318227;7319384;ID=Ssa_Repeat_1760485;Name=DTT_SsalEle0401;Note=DNA/TcMar-Tc1;DTT
ssa10;7318592;7318606;RXRGvar.2_MA1556.1;+;0.09801;0.00182;1;0;3.27274;ssa10;7230451;7337837;106613481;+;0;ssa10;7318227;7319384;ID=Ssa_Repeat_1760485;Name=DTT_SsalEle0401;Note=DNA/TcMar-Tc1;DTT
ssa10;7318595;7318613;TP53_MA0106.3;-;0.11465;0.00178;1;0;3.48595;ssa10;7230451;7337837;106613481;+;0;ssa10;7318227;7319384;ID=Ssa_Repeat_1760485;Name=DTT_SsalEle0401;Note=DNA/TcMar-Tc1;DTT
ssa10;7318595;7318613;TP63_MA0525.2;-;0.11465;0.00178;1;0;3.48595;ssa10;7230451;7337837;106613481;+;0;ssa10;7318227;7319384;ID=Ssa_Repeat_1760485;Name=DTT_SsalEle0401;Note=DNA/TcMar-Tc1;DTT
ssa10;7318598;7318612;CREB3L1_MA0839.1;+;0.11465;0.00178;1;0;3.48595;ssa10;7230451;7337837;106613481;+;0;ssa10;7318227;7319384;ID=Ssa_Repeat_1760485;Name=DTT_SsalEle0401;Note=DNA/TcMar-Tc1;DTT
ssa10;7318618;7318630;RUNX3_MA0684.2;-;0.12112;0.00171;1;0;3.56853;ssa10;7230451;7337837;106613481;+;0;ssa10;7318227;7319384;ID=Ssa_Repeat_1760485;Name=DTT_SsalEle0401;Note=DNA/TcMar-Tc1;DTT
ssa10;7318622;7318636;RXRBvar.2_MA1555.1;-;0.12112;0.00168;1;0;3.57247;ssa10;7230451;7337837;106613481;+;0;ssa10;7318227;7319384;ID=Ssa_Repeat_1760485;Name=DTT_SsalEle0401;Note=DNA/TcMar-Tc1;DTT
ssa10;7318622;7318636;RXRGvar.2_MA1556.1;+;0.12112;0.00168;1;0;3.57247;ssa10;7230451;7337837;106613481;+;0;ssa10;7318227;7319384;ID=Ssa_Repeat_1760485;Name=DTT_SsalEle0401;Note=DNA/TcMar-Tc1;DTT
ssa10;7318633;7318647;PLAG1_MA0163.1;-;0.10218;0.00098;1;0;3.44126;ssa10;7230451;7337837;106613481;+;0;ssa10;7318227;7319384;ID=Ssa_Repeat_1760485;Name=DTT_SsalEle0401;Note=DNA/TcMar-Tc1;DTT
ssa10;7318641;7318652;Nkx2-5var.2_MA0503.1;+;0.12382;0.00072;1;0;3.73427;ssa10;7230451;7337837;106613481;+;0;ssa10;7318227;7319384;ID=Ssa_Repeat_1760485;Name=DTT_SsalEle0401;Note=DNA/TcMar-Tc1;DTT
ssa10;7318644;7318659;ZBTB26_MA1579.1;+;0.12382;0.00058;1;0;3.75461;ssa10;7230451;7337837;106613481;+;0;ssa10;7318227;7319384;ID=Ssa_Repeat_1760485;Name=DTT_SsalEle0401;Note=DNA/TcMar-Tc1;DTT
ssa10;7318669;7318681;FOXC2_MA0846.1;-;0.12056;0.00013;1;0;3.78622;ssa10;7230451;7337837;106613481;+;0;ssa10;7318227;7319384;ID=Ssa_Repeat_1760485;Name=DTT_SsalEle0401;Note=DNA/TcMar-Tc1;DTT
ssa10;7318669;7318684;FOXE1_MA1487.1;-;0.12056;0.00013;1;0;3.78622;ssa10;7230451;7337837;106613481;+;0;ssa10;7318227;7319384;ID=Ssa_Repeat_1760485;Name=DTT_SsalEle0401;Note=DNA/TcMar-Tc1;DTT
ssa10;7318670;7318681;FOXC1_MA0032.2;-;0.12056;0.00013;1;0;3.78622;ssa10;7230451;7337837;106613481;+;0;ssa10;7318227;7319384;ID=Ssa_Repeat_1760485;Name=DTT_SsalEle0401;Note=DNA/TcMar-Tc1;DTT
ssa10;7318671;7318682;FOXH1_MA0479.1;-;0.12056;0.00013;1;0;3.78622;ssa10;7230451;7337837;106613481;+;0;ssa10;7318227;7319384;ID=Ssa_Repeat_1760485;Name=DTT_SsalEle0401;Note=DNA/TcMar-Tc1;DTT
ssa10;7318678;7318690;OSR2_MA1646.1;-;0.12056;8e-04;1;0;3.687;ssa10;7230451;7337837;106613481;+;0;ssa10;7318227;7319384;ID=Ssa_Repeat_1760485;Name=DTT_SsalEle0401;Note=DNA/TcMar-Tc1;DTT
ssa10;7318692;7318707;NR1H4RXRA_MA1146.1;+;0.12056;0.00184;1;0;3.54536;ssa10;7230451;7337837;106613481;+;0;ssa10;7318227;7319384;ID=Ssa_Repeat_1760485;Name=DTT_SsalEle0401;Note=DNA/TcMar-Tc1;DTT
ssa10;7318692;7318707;NR2F6var.3_MA1539.1;+;0.12056;0.00184;1;0;3.54536;ssa10;7230451;7337837;106613481;+;0;ssa10;7318227;7319384;ID=Ssa_Repeat_1760485;Name=DTT_SsalEle0401;Note=DNA/TcMar-Tc1;DTT
ssa10;7318692;7318707;NR4A2RXRA_MA1147.1;-;0.12056;0.00184;1;0;3.54536;ssa10;7230451;7337837;106613481;+;0;ssa10;7318227;7319384;ID=Ssa_Repeat_1760485;Name=DTT_SsalEle0401;Note=DNA/TcMar-Tc1;DTT
ssa25;32494938;32494948;ETV6_MA0645.1;-;0.1195;0;1;0;3.79446;ssa25;32436673;32519204;106586620;+;0;ssa25;32494034;32495493;ID=Ssa_Repeat_3546399;Name=DTT_SsalEle0709;Note=DNA/TcMar-Tc1;DTT
ssa25;32494950;32494960;NHLH1_MA0048.2;-;0.17452;0;1;0;4.30768;ssa25;32436673;32519204;106586620;+;0;ssa25;32494034;32495493;ID=Ssa_Repeat_3546399;Name=DTT_SsalEle0709;Note=DNA/TcMar-Tc1;DTT
ssa25;32494950;32494961;Tcf12_MA0521.1;+;0.17452;0;1;0;4.30768;ssa25;32436673;32519204;106586620;+;0;ssa25;32494034;32495493;ID=Ssa_Repeat_3546399;Name=DTT_SsalEle0709;Note=DNA/TcMar-Tc1;DTT
ssa25;32494951;32494966;MAFK_MA0496.3;-;0.1809;0;1;0;4.35691;ssa25;32436673;32519204;106586620;+;0;ssa25;32494034;32495493;ID=Ssa_Repeat_3546399;Name=DTT_SsalEle0709;Note=DNA/TcMar-Tc1;DTT
ssa25;32494966;32494980;Rbpjl_MA1621.1;+;0.18468;0;1;0;4.38531;ssa25;32436673;32519204;106586620;+;0;ssa25;32494034;32495493;ID=Ssa_Repeat_3546399;Name=DTT_SsalEle0709;Note=DNA/TcMar-Tc1;DTT
ssa25;32494967;32494979;Ptf1avar.3_MA1620.1;+;0.18468;0;1;0;4.38531;ssa25;32436673;32519204;106586620;+;0;ssa25;32494034;32495493;ID=Ssa_Repeat_3546399;Name=DTT_SsalEle0709;Note=DNA/TcMar-Tc1;DTT
ssa25;32494967;32494980;SNAI2_MA0745.2;+;0.18468;0;1;0;4.38531;ssa25;32436673;32519204;106586620;+;0;ssa25;32494034;32495493;ID=Ssa_Repeat_3546399;Name=DTT_SsalEle0709;Note=DNA/TcMar-Tc1;DTT
ssa25;32494968;32494978;FIGLA_MA0820.1;+;0.18468;0;1;0;4.38531;ssa25;32436673;32519204;106586620;+;0;ssa25;32494034;32495493;ID=Ssa_Repeat_3546399;Name=DTT_SsalEle0709;Note=DNA/TcMar-Tc1;DTT
ssa25;32494968;32494978;SNAI1_MA1558.1;-;0.18468;0;1;0;4.38531;ssa25;32436673;32519204;106586620;+;0;ssa25;32494034;32495493;ID=Ssa_Repeat_3546399;Name=DTT_SsalEle0709;Note=DNA/TcMar-Tc1;DTT
ssa25;32494968;32494978;SNAI3_MA1559.1;-;0.18468;0;1;0;4.38531;ssa25;32436673;32519204;106586620;+;0;ssa25;32494034;32495493;ID=Ssa_Repeat_3546399;Name=DTT_SsalEle0709;Note=DNA/TcMar-Tc1;DTT
ssa25;32494977;32494988;SOX10_MA0442.2;-;0.18612;0;1;0;4.39598;ssa25;32436673;32519204;106586620;+;0;ssa25;32494034;32495493;ID=Ssa_Repeat_3546399;Name=DTT_SsalEle0709;Note=DNA/TcMar-Tc1;DTT
ssa25;32494995;32495012;Six3_MA0631.1;-;0.11856;0;1;0;3.78389;ssa25;32436673;32519204;106586620;+;0;ssa25;32494034;32495493;ID=Ssa_Repeat_3546399;Name=DTT_SsalEle0709;Note=DNA/TcMar-Tc1;DTT
ssa25;32494997;32495009;DMRTC2_MA1479.1;+;0.11856;0;1;0;3.78389;ssa25;32436673;32519204;106586620;+;0;ssa25;32494034;32495493;ID=Ssa_Repeat_3546399;Name=DTT_SsalEle0709;Note=DNA/TcMar-Tc1;DTT
ssa25;32494998;32495009;DMRT3_MA0610.1;-;0.11856;0;1;0;3.78389;ssa25;32436673;32519204;106586620;+;0;ssa25;32494034;32495493;ID=Ssa_Repeat_3546399;Name=DTT_SsalEle0709;Note=DNA/TcMar-Tc1;DTT
ssa25;32495016;32495031;HNF1A_MA0046.2;-;0.2244;0;1;0;4.65408;ssa25;32436673;32519204;106586620;+;0;ssa25;32494034;32495493;ID=Ssa_Repeat_3546399;Name=DTT_SsalEle0709;Note=DNA/TcMar-Tc1;DTT
ssa25;32495017;32495030;HNF1B_MA0153.2;-;0.2244;0;1;0;4.65408;ssa25;32436673;32519204;106586620;+;0;ssa25;32494034;32495493;ID=Ssa_Repeat_3546399;Name=DTT_SsalEle0709;Note=DNA/TcMar-Tc1;DTT
ssa25;32495018;32495030;BARX2_MA1471.1;-;0.2244;0;1;0;4.65408;ssa25;32436673;32519204;106586620;+;0;ssa25;32494034;32495493;ID=Ssa_Repeat_3546399;Name=DTT_SsalEle0709;Note=DNA/TcMar-Tc1;DTT
ssa25;32495022;32495042;SPI1_MA0080.5;-;0.2244;0;1;0;4.65408;ssa25;32436673;32519204;106586620;+;0;ssa25;32494034;32495493;ID=Ssa_Repeat_3546399;Name=DTT_SsalEle0709;Note=DNA/TcMar-Tc1;DTT
ssa25;32495027;32495041;SPIC_MA0687.1;-;0.2244;0;1;0;4.65408;ssa25;32436673;32519204;106586620;+;0;ssa25;32494034;32495493;ID=Ssa_Repeat_3546399;Name=DTT_SsalEle0709;Note=DNA/TcMar-Tc1;DTT
ssa25;32495041;32495058;ZNF528_MA1597.1;-;0.2244;0;1;0;4.65408;ssa25;32436673;32519204;106586620;+;0;ssa25;32494034;32495493;ID=Ssa_Repeat_3546399;Name=DTT_SsalEle0709;Note=DNA/TcMar-Tc1;DTT
ssa25;32495046;32495060;SPIC_MA0687.1;-;0.2244;0;1;0;4.65408;ssa25;32436673;32519204;106586620;+;0;ssa25;32494034;32495493;ID=Ssa_Repeat_3546399;Name=DTT_SsalEle0709;Note=DNA/TcMar-Tc1;DTT
ssa25;32495056;32495071;MEF2C_MA0497.1;-;0.2244;0;1;0;4.65408;ssa25;32436673;32519204;106586620;+;0;ssa25;32494034;32495493;ID=Ssa_Repeat_3546399;Name=DTT_SsalEle0709;Note=DNA/TcMar-Tc1;DTT
ssa25;32495063;32495069;Arid3a_MA0151.1;-;0.2244;0;1;0;4.65408;ssa25;32436673;32519204;106586620;+;0;ssa25;32494034;32495493;ID=Ssa_Repeat_3546399;Name=DTT_SsalEle0709;Note=DNA/TcMar-Tc1;DTT
ssa25;32495082;32495094;NR4A1_MA1112.2;-;0.23772;0.00017;1;0;4.70787;ssa25;32436673;32519204;106586620;+;0;ssa25;32494034;32495493;ID=Ssa_Repeat_3546399;Name=DTT_SsalEle0709;Note=DNA/TcMar-Tc1;DTT
ssa25;32495099;32495109;NFAT5_MA0606.1;-;0.23772;0.00109;1;0;4.57386;ssa25;32436673;32519204;106586620;+;0;ssa25;32494034;32495493;ID=Ssa_Repeat_3546399;Name=DTT_SsalEle0709;Note=DNA/TcMar-Tc1;DTT
ssa25;32495101;32495108;NFATC2_MA0152.1;-;0.23772;0.00109;1;0;4.57386;ssa25;32436673;32519204;106586620;+;0;ssa25;32494034;32495493;ID=Ssa_Repeat_3546399;Name=DTT_SsalEle0709;Note=DNA/TcMar-Tc1;DTT
ssa25;32495109;32495124;Prdm15_MA1616.1;-;0.23772;0.00181;1;0;4.47702;ssa25;32436673;32519204;106586620;+;0;ssa25;32494034;32495493;ID=Ssa_Repeat_3546399;Name=DTT_SsalEle0709;Note=DNA/TcMar-Tc1;DTT
ssa25;32495116;32495127;SOX10_MA0442.2;-;0.23772;0.00188;1;0;4.46795;ssa25;32436673;32519204;106586620;+;0;ssa25;32494034;32495493;ID=Ssa_Repeat_3546399;Name=DTT_SsalEle0709;Note=DNA/TcMar-Tc1;DTT
ssa25;32495117;32495127;Sox3_MA0514.1;+;0.23772;0.00188;1;0;4.46795;ssa25;32436673;32519204;106586620;+;0;ssa25;32494034;32495493;ID=Ssa_Repeat_3546399;Name=DTT_SsalEle0709;Note=DNA/TcMar-Tc1;DTT
ssa25;32495124;32495133;LIN54_MA0619.1;+;0.23772;0.0019;1;0;4.46536;ssa25;32436673;32519204;106586620;+;0;ssa25;32494034;32495493;ID=Ssa_Repeat_3546399;Name=DTT_SsalEle0709;Note=DNA/TcMar-Tc1;DTT
ssa25;32495465;32495479;Foxl2_MA1607.1;-;0.09709;0.00232;1;0;3.19676;ssa25;32436673;32519204;106586620;+;0;ssa25;32494034;32495493;ID=Ssa_Repeat_3546399;Name=DTT_SsalEle0709;Note=DNA/TcMar-Tc1;DTT
ssa25;32495465;32495479;Foxl2_MA1607.1;-;0.09709;0.00232;1;0;3.19676;ssa25;32436673;32519204;106586620;+;0;ssa25;32495368;32495516;ID=Ssa_Repeat_3546400;Name=RIJ_SsalEle0140;Note=LINE/Jockey;RIJ
