﻿chromosome;conversion;TE;start_TE;stop_TE
ssa09;NC_027308.1;"ID=Ssa_Repeat_622966;Name=DTT_SsalEle0180;Note=DNA/TcMar-Tc1";24 002 910;24 004 524
ssa10;NC_027309.1;"ID=Ssa_Repeat_1760438;Name=DTT_SsalEle0351;Note=DNA/TcMar-Tc1";7 296 152;7 297 281
ssa10;NC_027309.1;"ID=Ssa_Repeat_1760485;Name=DTT_SsalEle0401;Note=DNA/TcMar-Tc1";7 318 227;7 319 384
ssa25;NC_027324.1;"ID=Ssa_Repeat_3546399;Name=DTT_SsalEle0709;Note=DNA/TcMar-Tc1";32 494 034;32 495 493