﻿chromosome;conversion;TE;start_TE;stop_TE;TFBS_name;Start_TFBS;Stop_TFBS;Openness;;;TFBS_length;TFBS_location
ssa09;NC_027308.1;SsalEle0108;24002910;24004524;MAFF_MA0495.3;24 004 499;24 004 515;start/low;;;16;1 589
ssa10;NC_027309.1;SsalEle0351;7296152;7297281;KLF10_MA1511.1;7297223;7297234;start/low;;;11;1 071
ssa10;NC_027309.1;SsalEle0401;7318227;7319384;RXRGvar.2_MA1556.1;7318592;7318606;start/low;;;14;365
ssa10;NC_027309.1;SsalEle0401;7318227;7319384;RXRGvar.2_MA1556.1;7318622;7318636;start/middle;;;14;395
ssa10;NC_027309.1;SsalEle0401;7318227;7319384;PLAG1_MA0163.1;7318633;7318647;start/middle;;;14;406
ssa10;NC_027309.1;SsalEle0401;7318227;7319384;NR1H4RXRA_MA1146.1;7318692;7318707;high;;;15;465
ssa25;NC_027324.1;SsalEle0709;32494034;32495493;MAFK_MA0496.3;32494951;32494966;start/middle;;;15;917
ssa25;NC_027324.1;SsalEle0709;32494034;32495493;HNF1A_MA0046.2;32495016;32495031;high;;;15;982
ssa25;NC_027324.1;SsalEle0709;32494034;32495493;HNF1B_MA0153.2;32495017;32495030;high;;;13;983
ssa25;NC_027324.1;SsalEle0709;32494034;32495493;Arid3a_MA0151.1;32495063;32495069;high;;;6;1 029